<?xml version="1.0" encoding="UTF-8" standalone="no"?>
<!-- Created with Inkscape (http://www.inkscape.org/) -->

<svg
   xmlns:dc="http://purl.org/dc/elements/1.1/"
   xmlns:cc="http://creativecommons.org/ns#"
   xmlns:rdf="http://www.w3.org/1999/02/22-rdf-syntax-ns#"
   xmlns:svg="http://www.w3.org/2000/svg"
   xmlns="http://www.w3.org/2000/svg"
   xmlns:sodipodi="http://sodipodi.sourceforge.net/DTD/sodipodi-0.dtd"
   xmlns:inkscape="http://www.inkscape.org/namespaces/inkscape"
   width="12mm"
   height="16mm"
   viewBox="0 0 12 16"
   version="1.1"
   id="svg4801"
   inkscape:version="0.92.2 (5c3e80d, 2017-08-06)"
   sodipodi:docname="BBB_Etch.svg">
  <defs
     id="defs4795" />
  <sodipodi:namedview
     id="base"
     pagecolor="#ffffff"
     bordercolor="#666666"
     borderopacity="1.0"
     inkscape:pageopacity="0.0"
     inkscape:pageshadow="2"
     inkscape:zoom="10.03263"
     inkscape:cx="-14.764643"
     inkscape:cy="30.758146"
     inkscape:document-units="mm"
     inkscape:current-layer="layer1"
     showgrid="false"
     inkscape:window-width="1920"
     inkscape:window-height="1051"
     inkscape:window-x="-9"
     inkscape:window-y="-9"
     inkscape:window-maximized="1" />
  <metadata
     id="metadata4798">
    <rdf:RDF>
      <cc:Work
         rdf:about="">
        <dc:format>image/svg+xml</dc:format>
        <dc:type
           rdf:resource="http://purl.org/dc/dcmitype/StillImage" />
        <dc:title></dc:title>
      </cc:Work>
    </rdf:RDF>
  </metadata>
  <g
     inkscape:label="Layer 1"
     inkscape:groupmode="layer"
     id="layer1"
     transform="translate(0,-281)">
    <path
       style="fill:none;stroke:#0000ff;stroke-width:0.26458332px;stroke-linecap:butt;stroke-linejoin:miter;stroke-opacity:1"
       d="m 4.778523,292.39013 0.04725,3.56715 c -0.131974,0.41286 -0.316494,0.78632 -0.944941,0.82683 l -1.08668,-0.0236 c -0.668203,-0.46935 0.09309,-1.29566 0.377975,-2.008 l 0.02363,-3.18917"
       id="path4814"
       inkscape:connector-curvature="0"
       sodipodi:nodetypes="cccccc" />
    <path
       style="fill:none;stroke:#0000ff;stroke-width:0.26458332px;stroke-linecap:butt;stroke-linejoin:miter;stroke-opacity:1"
       d="m 2.534287,296.16989 c -1.179188,-0.0482 -1.059585,-0.73406 -0.874067,-1.46465 0.162434,-0.25199 0.474131,-0.50397 0.755952,-0.75596 -0.16432,-0.65358 -0.818404,-1.30717 -1.228424,-1.96075 -0.465272,-0.89369 -0.716851,-1.66026 -0.661458,-2.24423 0.156656,-0.25616 0.247174,-0.66349 0.826823,0.0472 0.148223,0.59697 0.143945,1.12616 0.826823,1.96075 0.0065,-1.15636 0.129702,-1.72959 0.259858,-2.26786"
       id="path4816"
       inkscape:connector-curvature="0"
       sodipodi:nodetypes="cccccccc" />
    <path
       style="fill:none;stroke:#0000ff;stroke-width:0.26458332px;stroke-linecap:butt;stroke-linejoin:miter;stroke-opacity:1"
       d="m 3.195748,282.23202 c 0.963917,-0.0337 1.172599,0.98253 1.41741,2.14974 0.193086,0.9206 0.70477,1.85786 0.779576,2.64584 0.144798,1.52527 -0.505865,2.21217 -1.535528,2.3151 l -1.417412,0.14169 c -0.915746,0.0915 -1.914522,-0.83075 -2.102491,-1.60635 -0.09942,-0.41022 -0.08931,-0.97147 0.04725,-1.29929 0.560198,-1.34475 1.042729,-2.52218 1.630021,-3.70889 0.183441,-0.37067 0.58471,-0.61699 1.181174,-0.63784 z"
       id="path4818"
       inkscape:connector-curvature="0"
       sodipodi:nodetypes="sssssssss" />
    <path
       style="fill:none;stroke:#0000ff;stroke-width:0.26458332px;stroke-linecap:butt;stroke-linejoin:miter;stroke-opacity:1"
       d="m 3.195748,282.23202 c 0.20093,-0.37874 0.499136,-0.73801 1.322917,-0.99218 l 1.889879,-0.0236 c 0.975421,0.54852 1.971578,1.0779 2.149739,2.36235 0.459346,0.52609 1.051343,0.7115 1.420286,0.94028 0.403145,0.25 0.567462,0.51971 0.682207,0.548"
       id="path4822"
       inkscape:connector-curvature="0"
       sodipodi:nodetypes="ccccsc" />
    <path
       style="fill:none;stroke:#0000ff;stroke-width:0.26458332px;stroke-linecap:butt;stroke-linejoin:miter;stroke-opacity:1"
       d="m 10.660776,285.06687 c 0.541089,0.0905 1.480924,0.23766 0.87407,1.39376 -0.316514,0.60298 -1.023833,0.55248 -1.464657,0.28348 -0.898464,-0.54825 -0.429195,-0.8662 -0.259858,-1.18117 0.155405,-0.28906 0.526761,-0.55023 0.850445,-0.49607 z"
       id="path4833"
       inkscape:connector-curvature="0"
       sodipodi:nodetypes="sssss" />
    <path
       style="fill:none;stroke:#0000ff;stroke-width:0.26458332px;stroke-linecap:butt;stroke-linejoin:miter;stroke-opacity:1"
       d="M 4.802147,295.29583 H 6.384922"
       id="path5378"
       inkscape:connector-curvature="0"
       sodipodi:nodetypes="cc" />
    <path
       style="fill:none;stroke:#0000ff;stroke-width:0.26458332px;stroke-linecap:butt;stroke-linejoin:miter;stroke-opacity:1"
       d="m 6.621158,292.24839 0.02363,2.5041 c -0.165136,0.27738 -0.393751,0.42869 -0.212611,1.39378 0.489281,0.4438 1.058352,0.76222 1.984375,0.51972 0.440581,-0.0606 0.409614,-0.43563 0.496093,-0.73233"
       id="path5380"
       inkscape:connector-curvature="0"
       sodipodi:nodetypes="ccccc" />
    <path
       style="fill:none;stroke:#0000ff;stroke-width:0.26458332px;stroke-linecap:butt;stroke-linejoin:miter;stroke-opacity:1"
       d="m 8.014943,291.20896 0.02363,3.42541 c 0.199616,0.22488 -0.334435,0.089 0.874078,1.29929 0.387876,0.10007 0.735419,0.0892 0.874061,-0.49609 0.04817,-0.77329 -0.51809,-1.0687 -1.015809,-1.41741 l 0.354351,-0.42523 c 0.04277,-0.0513 0.03281,-2.31965 -0.02363,-3.40178 -0.0094,-0.18104 -0.307108,-0.44885 -0.307108,-0.44885"
       id="path5382"
       inkscape:connector-curvature="0"
       sodipodi:nodetypes="cccccssc" />
    <path
       style="fill:none;stroke:#0000ff;stroke-width:0.26458332px;stroke-linecap:butt;stroke-linejoin:miter;stroke-opacity:1"
       d="m 6.290428,289.55531 c 1.381689,0.10983 3.112313,0.52226 3.60199,-0.59214"
       id="path5384"
       inkscape:connector-curvature="0"
       sodipodi:nodetypes="cc" />
    <path
       style="fill:none;stroke:#0000ff;stroke-width:0.26458332px;stroke-linecap:butt;stroke-linejoin:miter;stroke-opacity:1"
       d="m 7.377109,288.70487 c 2.064975,-0.34375 4.421041,-0.51897 4.181361,-2.19699"
       id="path5386"
       inkscape:connector-curvature="0"
       sodipodi:nodetypes="cc" />
    <path
       style="fill:none;stroke:#0000ff;stroke-width:0.26458332px;stroke-linecap:butt;stroke-linejoin:miter;stroke-opacity:1"
       d="m 7.377109,288.70487 2.456842,0.14174 c 0.33327,0.32489 0.59143,1.00188 1.346544,0.54334 0.606915,-0.58266 0.207953,-1.24915 0.118117,-1.88988"
       id="path5388"
       inkscape:connector-curvature="0"
       sodipodi:nodetypes="cccc" />
    <path
       style="fill:none;stroke:#0000ff;stroke-width:0.26458332px;stroke-linecap:butt;stroke-linejoin:miter;stroke-opacity:1"
       d="m 9.618107,288.32427 0.215843,0.52234"
       id="path5390"
       inkscape:connector-curvature="0"
       sodipodi:nodetypes="cc" />
    <path
       style="fill:none;stroke:#0000ff;stroke-width:0.26458332px;stroke-linecap:butt;stroke-linejoin:miter;stroke-opacity:1"
       d="m 6.195932,283.86204 c 0.08539,-0.59776 -0.947955,-0.54581 -1.015811,-0.0708 -0.07147,0.50029 0.903911,0.85412 1.015811,0.0708 z"
       id="path5392"
       inkscape:connector-curvature="0"
       sodipodi:nodetypes="sss" />
    <path
       style="fill:none;stroke:#0000ff;stroke-width:0.26458332px;stroke-linecap:butt;stroke-linejoin:miter;stroke-opacity:1"
       d="m 8.558281,283.57859 c 0.211633,-0.44219 -0.747034,-0.56388 -0.944936,-0.18901 -0.213201,0.40385 0.67072,0.76196 0.944936,0.18901 z"
       id="path5394"
       inkscape:connector-curvature="0"
       sodipodi:nodetypes="sss" />
  </g>
</svg>
