<?xml version="1.0" encoding="UTF-8" standalone="no"?>
<!-- Created with Inkscape (http://www.inkscape.org/) -->

<svg
   xmlns:dc="http://purl.org/dc/elements/1.1/"
   xmlns:cc="http://creativecommons.org/ns#"
   xmlns:rdf="http://www.w3.org/1999/02/22-rdf-syntax-ns#"
   xmlns:svg="http://www.w3.org/2000/svg"
   xmlns="http://www.w3.org/2000/svg"
   xmlns:sodipodi="http://sodipodi.sourceforge.net/DTD/sodipodi-0.dtd"
   xmlns:inkscape="http://www.inkscape.org/namespaces/inkscape"
   width="210mm"
   height="297mm"
   viewBox="0 0 210 297"
   version="1.1"
   id="svg3584"
   inkscape:version="0.92.2 (5c3e80d, 2017-08-06)"
   sodipodi:docname="VixenLogo.svg">
  <defs
     id="defs3578" />
  <sodipodi:namedview
     id="base"
     pagecolor="#ffffff"
     bordercolor="#666666"
     borderopacity="1.0"
     inkscape:pageopacity="0.0"
     inkscape:pageshadow="2"
     inkscape:zoom="3.1179854"
     inkscape:cx="348.29594"
     inkscape:cy="545.36405"
     inkscape:document-units="mm"
     inkscape:current-layer="layer1"
     showgrid="false"
     inkscape:window-width="1920"
     inkscape:window-height="1051"
     inkscape:window-x="-9"
     inkscape:window-y="-9"
     inkscape:window-maximized="1" />
  <metadata
     id="metadata3581">
    <rdf:RDF>
      <cc:Work
         rdf:about="">
        <dc:format>image/svg+xml</dc:format>
        <dc:type
           rdf:resource="http://purl.org/dc/dcmitype/StillImage" />
        <dc:title></dc:title>
      </cc:Work>
    </rdf:RDF>
  </metadata>
  <g
     inkscape:label="Layer 1"
     inkscape:groupmode="layer"
     id="layer1">
    <g
       id="g3612"
       style="stroke:#0000ff">
      <circle
         r="19.654762"
         cy="156.92203"
         cx="86.235275"
         id="path3597"
         style="fill:none;fill-opacity:1;stroke:#0000ff;stroke-width:0.26499999;stroke-linecap:butt;stroke-linejoin:round;stroke-miterlimit:4;stroke-dasharray:none;stroke-opacity:1" />
      <path
         sodipodi:nodetypes="cscssccccc"
         inkscape:connector-curvature="0"
         id="path3599"
         d="m 86.698288,176.54371 c -0.07201,-0.79646 -0.224121,-1.62 -0.07087,-2.33872 0.661964,-3.10442 2.473458,-6.19918 3.803383,-9.37854 0,0 0.198122,-1.58584 -0.28348,-3.04743 -0.230124,-0.69839 -0.04984,-1.2876 0.944939,-1.39379 2.495866,-0.26643 4.27804,0.005 5.197173,-0.96857 1.3807,-1.62017 0.391153,-1.4975 -0.283483,-1.60639 l -4.630208,0.47247 c 4.198683,-1.4023 8.697784,-2.28139 12.614954,-4.13412 l 1.58278,-0.77957"
         style="fill:none;stroke:#0000ff;stroke-width:0.26458332px;stroke-linecap:butt;stroke-linejoin:miter;stroke-opacity:1" />
      <path
         sodipodi:nodetypes="cscsscscsssssccscscc"
         inkscape:connector-curvature="0"
         id="path3601"
         d="m 104.81752,150.58147 c -0.69859,0.73907 -1.43433,1.39727 -2.43322,1.67727 -1.74638,0.48953 -2.947663,0.51122 -2.740329,-0.96856 -0.02823,-0.50954 0.839449,-1.14191 0.637839,-1.88988 -0.383268,-1.42192 -2.040762,-1.75901 -2.480471,0.0472 -0.415608,1.70721 0.442658,3.87013 -0.637837,4.93732 -0.985313,0.75356 -3.828305,1.72063 -3.496277,0.7087 0.262382,-0.79966 0.02343,-1.67145 -1.417411,-1.06306 -0.681021,0.40893 -1.012447,1.13193 -0.968566,1.58278 0.04476,0.45988 -3.000471,1.28906 -4.554373,1.19616 -2.688384,-0.16072 -5.211464,-0.62534 -7.281005,-3.10967 -0.205968,-0.24725 0.196658,-0.86634 0.08354,-1.31655 -0.173807,-0.69175 -1.072436,-1.33659 -1.217472,-0.88043 -0.24777,0.77928 -0.865728,1.07225 -1.889879,0.66146 -2.166648,-0.778 -1.966425,-2.70126 -2.291482,-4.37035 -0.129617,-1.06501 -0.170841,-2.0001 -1.181174,-2.24424 -0.80042,-0.19342 -1.08016,-0.12545 -1.535531,0.0236 -0.138482,0.63485 0.372424,1.14851 0.59059,2.29148 0.160817,0.84252 -1.01811,1.00182 -2.055246,0.59059 -0.445431,-0.24564 -0.735469,-0.62078 -0.803198,-1.18117"
         style="fill:none;stroke:#0000ff;stroke-width:0.26458332px;stroke-linecap:butt;stroke-linejoin:miter;stroke-opacity:1" />
      <path
         sodipodi:nodetypes="cssssscsscsssc"
         inkscape:connector-curvature="0"
         id="path3603"
         d="m 68.106583,149.25856 c -0.01963,0.0241 3.094959,2.52317 5.031809,3.26004 1.307199,0.49732 3.803385,1.77176 3.803385,1.77176 2.950434,1.57409 3.911885,3.74019 -0.614212,1.44104 -4.886332,-2.48214 -5.500744,-1.19831 -3.84871,0.0292 0.710032,0.52757 1.615308,1.35334 2.951019,1.81342 2.056263,0.70827 1.643729,1.00799 0.944941,1.67727 -0.740559,0.76787 -0.645775,1.13262 -0.66146,1.86626 -0.02173,1.0162 -1.941789,1.67072 -3.260044,2.64584 -1.590972,1.17685 -1.39357,2.55133 0.141735,3.77975 1.120381,0.84304 2.293222,1.51155 4.417597,1.08668 l 3.189173,-0.63783 c 1.321989,-0.2644 2.061342,-0.53253 1.27567,1.27567 -0.85745,1.9734 -1.873674,3.82723 -2.905691,5.69326"
         style="fill:none;stroke:#0000ff;stroke-width:0.26458332px;stroke-linecap:butt;stroke-linejoin:miter;stroke-opacity:1" />
      <path
         sodipodi:nodetypes="cccc"
         inkscape:connector-curvature="0"
         id="path3605"
         d="m 76.516554,160.83408 c 0.321966,-0.72359 0.711981,-1.39274 1.346542,-1.86626 0.145869,0.13886 0.378111,0.16256 0.165364,0.77957 -0.368666,0.54263 -0.964745,0.78205 -1.511906,1.08669 z"
         style="fill:none;stroke:#0000ff;stroke-width:0.26458332px;stroke-linecap:butt;stroke-linejoin:miter;stroke-opacity:1" />
    </g>
  </g>
</svg>
